{
	"variables": [],
	"info": {
		"name": "DataMarketAPI",
		"_postman_id": "ea2eeba0-2162-b4b6-cb41-c3fa682c3366",
		"description": "",
		"schema": "https://schema.getpostman.com/json/collection/v2.0.0/collection.json"
	},
	"item": [
		{
			"name": "Account",
			"description": "",
			"item": [
				{
					"name": "Register new user",
					"event": [
						{
							"listen": "test",
							"script": {
								"type": "text/javascript",
								"exec": [
									"tests[\"Correct Status code (200 or 400 -with msg-)\"] = responseCode.code === 200 ||",
									"(responseCode.code === 400 && responseBody.has(\"A company already exists.\"));"
								]
							}
						}
					],
					"request": {
						"url": "localhost:5000/api/Account/register",
						"method": "POST",
						"header": [
							{
								"key": "Content-Type",
								"value": "application/x-www-form-urlencoded",
								"description": ""
							}
						],
						"body": {
							"mode": "urlencoded",
							"urlencoded": [
								{
									"key": "Email",
									"value": "chriszioutas@gmail.com",
									"type": "text",
									"enabled": true
								},
								{
									"key": "company",
									"value": "wayfair",
									"type": "text",
									"enabled": true
								},
								{
									"key": "firstName",
									"value": "Chris",
									"type": "text",
									"enabled": true
								},
								{
									"key": "lastName",
									"value": "Zioutas",
									"type": "text",
									"enabled": true
								},
								{
									"key": "password",
									"value": "bob1A1!",
									"type": "text",
									"enabled": true
								},
								{
									"key": "password2",
									"value": "bob1A1!",
									"type": "text",
									"enabled": true
								},
								{
									"key": "overridevalue",
									"value": "overridevalue",
									"type": "text",
									"enabled": true
								}
							]
						},
						"description": "Account - POST - Register new user"
					},
					"response": []
				},
				{
					"name": "User sign in",
					"event": [
						{
							"listen": "test",
							"script": {
								"type": "text/javascript",
								"exec": [
									"tests[\"Status code is 200\"] = responseCode.code === 200;",
									"var jsonData = JSON.parse(responseBody);",
									"postman.setEnvironmentVariable(\"token\", jsonData.access_token);",
									""
								]
							}
						}
					],
					"request": {
						"url": "localhost:5000/api/Account/login",
						"method": "POST",
						"header": [
							{
								"key": "Content-Type",
								"value": "application/x-www-form-urlencoded",
								"description": ""
							}
						],
						"body": {
							"mode": "urlencoded",
							"urlencoded": [
								{
									"key": "Email",
									"value": "chriszioutas@gmail.com",
									"type": "text",
									"enabled": true,
									"warning": ""
								},
								{
									"key": "password",
									"value": "bob1A1!",
									"type": "text",
									"enabled": true,
									"warning": ""
								},
								{
									"key": "",
									"value": "",
									"type": "text",
									"enabled": true,
									"warning": ""
								}
							]
						},
						"description": "Account - POST - User sign in"
					},
					"response": []
				},
				{
					"name": "Current user details",
					"event": [
						{
							"listen": "test",
							"script": {
								"type": "text/javascript",
								"exec": [
									"tests[\"Status code is 200\"] = responseCode.code === 200;"
								]
							}
						},
						{
							"listen": "prerequest",
							"script": {
								"type": "text/javascript",
								"exec": [
									"postman.clearGlobalVariable(\"variable_key\");",
									"",
									"postman.clearEnvironmentVariable(\"variable_key\");"
								]
							}
						}
					],
					"request": {
						"url": "localhost:5000/api/account/GetUser",
						"method": "GET",
						"header": [],
						"body": {},
						"description": "Account - GET - Current user details"
					},
					"response": []
				},
				{
					"name": "Current user SESSION",
					"event": [
						{
							"listen": "test",
							"script": {
								"type": "text/javascript",
								"exec": [
									"tests[\"Status code is 200\"] = responseCode.code === 200;"
								]
							}
						},
						{
							"listen": "prerequest",
							"script": {
								"type": "text/javascript",
								"exec": [
									"postman.clearGlobalVariable(\"variable_key\");",
									"",
									"postman.clearEnvironmentVariable(\"variable_key\");"
								]
							}
						}
					],
					"request": {
						"url": "localhost:5000/api/account/GetUserSession",
						"method": "GET",
						"header": [
							{
								"key": "Authorization",
								"value": "Bearer eyJhbGciOiJIUzI1NiIsInR5cCI6IkpXVCJ9.eyJzdWIiOiJ6LmNocmlzLjkyQGdtYWlsLmNvbSIsImp0aSI6IjM3NGI1ODc0LWM2ZWUtNDgzZS04ZmE5LWU0ODhhYjI3OGE0MSIsImlhdCI6MTQ3ODAxNTU2NSwibmJmIjoxNDc4MDE1NTY1LCJleHAiOjE0NzgwMTU2MjUsImlzcyI6IkV4YW1wbGVJc3N1ZXIiLCJhdWQiOiJFeGFtcGxlQXVkaWVuY2UifQ.Krw4XuPdZuR1U3uuHtYxXU9OOoD70TC1Zvu038sZI2g",
								"description": ""
							}
						],
						"body": {},
						"description": "Account - GET - Current user SESSION"
					},
					"response": []
				},
				{
					"name": "Current User Logout",
					"event": [
						{
							"listen": "test",
							"script": {
								"type": "text/javascript",
								"exec": [
									"tests[\"Status code is 200\"] = responseCode.code === 200;"
								]
							}
						}
					],
					"request": {
						"url": "localhost:5000/api/Account/logout",
						"method": "GET",
						"header": [],
						"body": {},
						"description": "Account - GET - Current User Logout"
					},
					"response": []
				},
				{
					"name": "Forgot Password",
					"request": {
						"url": "localhost:5000/api/Account/ForgotPassowrd/chriszioutas@gmail.com",
						"method": "GET",
						"header": [],
						"body": {},
						"description": ""
					},
					"response": []
				},
				{
					"name": "Reset Password",
					"event": [
						{
							"listen": "test",
							"script": {
								"type": "text/javascript",
								"exec": [
									"tests[\"Status code is 200\"] = responseCode.code === 200;"
								]
							}
						}
					],
					"request": {
						"url": "localhost:5000/api/Account/resetpassword/",
						"method": "POST",
						"header": [
							{
								"key": "Content-Type",
								"value": "application/x-www-form-urlencoded",
								"description": ""
							}
						],
						"body": {
							"mode": "urlencoded",
							"urlencoded": [
								{
									"key": "Email",
									"value": "chriszioutas@gmail.com",
									"type": "text",
									"enabled": true,
									"warning": ""
								},
								{
									"key": "password",
									"value": "bob1A1!111111",
									"type": "text",
									"enabled": true,
									"warning": ""
								},
								{
									"key": "token",
									"value": "token",
									"type": "text",
									"enabled": true,
									"warning": ""
								}
							]
						},
						"description": "Account - POST - Reset Password"
					},
					"response": []
				}
			]
		},
		{
			"name": "DataEngine",
			"description": "",
			"item": [
				{
					"name": "localhost:8000/api/dataengine/1",
					"request": {
						"url": "localhost:5000/api/data/1",
						"method": "GET",
						"header": [],
						"body": {},
						"description": ""
					},
					"response": []
				}
			]
		},
		{
			"name": "Datasource",
			"description": "",
			"item": [
				{
					"name": "Create new datasource",
					"event": [
						{
							"listen": "test",
							"script": {
								"type": "text/javascript",
								"exec": [
									"tests[\"Status code is 200\"] = responseCode.code === 200;"
								]
							}
						}
					],
					"request": {
						"url": "localhost:5000/api/datasource/",
						"method": "POST",
						"header": [
							{
								"key": "Content-Type",
								"value": "application/json",
								"description": ""
							}
						],
						"body": {
							"mode": "urlencoded",
							"urlencoded": [
								{
									"key": "datasource.title",
									"value": "this is a test title",
									"type": "text",
									"enabled": true
								},
								{
									"key": "datasource.description",
									"value": "this is a test description",
									"type": "text",
									"enabled": true
								},
								{
									"key": "datasource.type",
									"value": "1",
									"type": "text",
									"enabled": true
								},
								{
									"key": "connectionDetails.host",
									"value": "51.15.44.100",
									"type": "text",
									"enabled": true
								},
								{
									"key": "connectionDetails.database",
									"value": "demo",
									"type": "text",
									"enabled": true
								},
								{
									"key": "connectionDetails.username",
									"value": "demo",
									"type": "text",
									"enabled": true
								},
								{
									"key": "connectionDetails.password",
									"value": "demo",
									"type": "text",
									"enabled": true
								},
								{
									"key": "connectionDetails.port",
									"value": "3306",
									"type": "text",
									"enabled": true
								}
							]
						},
						"description": "Datasource - POST - create new datasource"
					},
					"response": []
				},
				{
					"name": "Get datasource details",
					"event": [
						{
							"listen": "test",
							"script": {
								"type": "text/javascript",
								"exec": [
									"tests[\"Status code is 200\"] = responseCode.code === 200;",
									"",
									"var jsonData = JSON.parse(responseBody);",
									"tests[\"Title got updated\"] = jsonData.title === \"title2\";",
									"tests[\"Description got updated\"] = jsonData.description === \"description2\";",
									"tests[\"Type got updated\"] = jsonData.type == \"2\";",
									"tests[\"CD-Host got updated\"] = jsonData.connectionDetails.host === \"host2\";",
									"//tests[\"CD-username got updated\"] = jsonData.connectionDetails.username === \"username2\";",
									"//tests[\"CD-password got updated\"] = jsonData.connectionDetails.password === \"password2\";",
									"//tests[\"CD-database got updated\"] = jsonData.connectionDetails.database === \"database2\";",
									"//tests[\"CD-post got updated\"] = jsonData.connectionDetails.host === \"2\";",
									"tests[\"CD-UpdatedAt got updated\"] = jsonData.updatedAt !== jsonData.createdAt;"
								]
							}
						}
					],
					"request": {
						"url": "localhost:5000/api/datasource/1",
						"method": "GET",
						"header": [],
						"body": {},
						"description": "Datasource - GET - Get datasource details"
					},
					"response": []
				},
				{
					"name": "Update datasource details",
					"event": [
						{
							"listen": "test",
							"script": {
								"type": "text/javascript",
								"exec": [
									"tests[\"Status code is 200\"] = responseCode.code === 200;"
								]
							}
						}
					],
					"request": {
						"url": "localhost:5000/api/datasource/1",
						"method": "PUT",
						"header": [
							{
								"key": "Content-Type",
								"value": "application/json",
								"description": ""
							}
						],
						"body": {
							"mode": "urlencoded",
							"urlencoded": [
								{
									"key": "datasource.title",
									"value": "title2",
									"type": "text",
									"enabled": true
								},
								{
									"key": "datasource.description",
									"value": "description2",
									"type": "text",
									"enabled": true
								},
								{
									"key": "datasource.type",
									"value": "2",
									"type": "text",
									"enabled": true
								},
								{
									"key": "connectionDetails.host",
									"value": "host2",
									"type": "text",
									"enabled": true
								},
								{
									"key": "connectionDetails.database",
									"value": "database2",
									"type": "text",
									"enabled": true
								},
								{
									"key": "connectionDetails.username",
									"value": "username2",
									"type": "text",
									"enabled": true
								},
								{
									"key": "connectionDetails.password",
									"value": "password2",
									"type": "text",
									"enabled": true
								},
								{
									"key": "connectionDetails.port",
									"value": "2",
									"type": "text",
									"enabled": true
								},
								{
									"key": "datasource.id",
									"value": "1",
									"type": "text",
									"enabled": true
								}
							]
						},
						"description": "Datasource - PUT - update datasource details"
					},
					"response": []
				},
				{
					"name": "Delete Datasource (with Connection details)",
					"event": [
						{
							"listen": "test",
							"script": {
								"type": "text/javascript",
								"exec": [
									"tests[\"Status code is 200\"] = responseCode.code === 200;"
								]
							}
						}
					],
					"request": {
						"url": "localhost:5000/api/datasource/1",
						"method": "DELETE",
						"header": [],
						"body": {},
						"description": "Datasource - DELETE - Delete Datasource with ConnectionDetails"
					},
					"response": []
				},
				{
					"name": "Create new Metric",
					"event": [
						{
							"listen": "test",
							"script": {
								"type": "text/javascript",
								"exec": [
									"tests[\"Status code is 200\"] = responseCode.code === 200;"
								]
							}
						}
					],
					"request": {
						"url": "localhost:5000/api/Metric",
						"method": "POST",
						"header": [
							{
								"key": "Content-Type",
								"value": "application/json",
								"description": ""
							}
						],
						"body": {
							"mode": "urlencoded",
							"urlencoded": [
								{
									"key": "metric.title",
									"value": "this is a name",
									"type": "text",
									"enabled": true
								},
								{
									"key": "metric.description",
									"value": "this is a description",
									"type": "text",
									"enabled": true
								},
								{
									"key": "metric.query",
									"value": "this is a query",
									"type": "text",
									"enabled": true
								},
								{
									"key": "metric.DatasourceId",
									"value": "1",
									"type": "text",
									"enabled": true
								}
							]
						},
						"description": "Metric - POST - Create new Metric"
					},
					"response": []
				},
				{
					"name": "Get Metric Details",
					"event": [
						{
							"listen": "test",
							"script": {
								"type": "text/javascript",
								"exec": [
									"tests[\"Status code is 200\"] = responseCode.code === 200;",
									"",
									"var jsonData = JSON.parse(responseBody);",
									"tests[\"Name got updated\"] = jsonData.name === \"name2\";",
									"tests[\"Description got updated\"] = jsonData.description === \"description2\";",
									"tests[\"chartType got updated\"] = jsonData.chartType == \"2\";",
									"tests[\"query got updated\"] = jsonData.query === \"query2\";",
									"tests[\"UpdatedAt got updated\"] = jsonData.updatedAt !== jsonData.createdAt;"
								]
							}
						}
					],
					"request": {
						"url": "localhost:5000/api/metric/1",
						"method": "GET",
						"header": [],
						"body": {},
						"description": "Metric - GET - Metric Details\n"
					},
					"response": []
				},
				{
					"name": "Delete a metric",
					"event": [
						{
							"listen": "test",
							"script": {
								"type": "text/javascript",
								"exec": [
									"tests[\"Status code is 200\"] = responseCode.code === 200;"
								]
							}
						}
					],
					"request": {
						"url": "localhost:5000/api/metric/1",
						"method": "DELETE",
						"header": [],
						"body": {},
						"description": "Metric - DELETE - delete a metric"
					},
					"response": []
				}
			]
		},
		{
			"name": "Metric",
			"description": "",
			"item": [
				{
					"name": "Create new Metric",
					"event": [
						{
							"listen": "test",
							"script": {
								"type": "text/javascript",
								"exec": [
									"tests[\"Status code is 200\"] = responseCode.code === 200;"
								]
							}
						}
					],
					"request": {
						"url": "localhost:5000/api/Metric",
						"method": "POST",
						"header": [
							{
								"key": "Content-Type",
								"value": "application/json",
								"description": ""
							}
						],
						"body": {
							"mode": "urlencoded",
							"urlencoded": [
								{
									"key": "metric.title",
									"value": "this is a name",
									"type": "text",
									"enabled": true
								},
								{
									"key": "metric.description",
									"value": "this is a description",
									"type": "text",
									"enabled": true
								},
								{
									"key": "metric.query",
									"value": "select * from MyGuests",
									"type": "text",
									"enabled": true
								},
								{
									"key": "metric.DatasourceId",
									"value": "1",
									"type": "text",
									"enabled": true
								}
							]
						},
						"description": "Metric - POST - Create new Metric"
					},
					"response": []
				},
				{
					"name": "Get Metric Details",
					"event": [
						{
							"listen": "test",
							"script": {
								"type": "text/javascript",
								"exec": [
									"tests[\"Status code is 200\"] = responseCode.code === 200;",
									"",
									"var jsonData = JSON.parse(responseBody);",
									"tests[\"Name got updated\"] = jsonData.name === \"name2\";",
									"tests[\"Description got updated\"] = jsonData.description === \"description2\";",
									"tests[\"chartType got updated\"] = jsonData.chartType == \"2\";",
									"tests[\"query got updated\"] = jsonData.query === \"query2\";",
									"tests[\"UpdatedAt got updated\"] = jsonData.updatedAt !== jsonData.createdAt;"
								]
							}
						}
					],
					"request": {
						"url": "localhost:5000/api/metric/1",
						"method": "GET",
						"header": [],
						"body": {},
						"description": "Metric - GET - Metric Details\n"
					},
					"response": []
				},
				{
					"name": "Delete a metric",
					"event": [
						{
							"listen": "test",
							"script": {
								"type": "text/javascript",
								"exec": [
									"tests[\"Status code is 200\"] = responseCode.code === 200;"
								]
							}
						}
					],
					"request": {
						"url": "localhost:5000/api/metric/1",
						"method": "DELETE",
						"header": [],
						"body": {},
						"description": "Metric - DELETE - delete a metric"
					},
					"response": []
				},
				{
					"name": "Update Metric ",
					"event": [
						{
							"listen": "test",
							"script": {
								"type": "text/javascript",
								"exec": [
									"tests[\"Status code is 200\"] = responseCode.code === 200;"
								]
							}
						}
					],
					"request": {
						"url": "localhost:5000/api/Metric/1",
						"method": "PUT",
						"header": [
							{
								"key": "Content-Type",
								"value": "application/x-www-form-urlencoded",
								"description": ""
							}
						],
						"body": {
							"mode": "urlencoded",
							"urlencoded": [
								{
									"key": "metric.title",
									"value": "name2",
									"type": "text",
									"enabled": true
								},
								{
									"key": "metric.query",
									"value": "query2",
									"type": "text",
									"enabled": true
								},
								{
									"key": "metric.description",
									"value": "description2",
									"type": "text",
									"enabled": true
								},
								{
									"key": "metric.DatasourceId",
									"value": "1",
									"type": "text",
									"enabled": true
								},
								{
									"key": "metric.ID",
									"value": "1",
									"type": "text",
									"enabled": true
								}
							]
						},
						"description": "Metric - PUT - Update Metric Details"
					},
					"response": []
				}
			]
		},
		{
			"name": "Status",
			"description": "",
			"item": [
				{
					"name": "localhost:8000/api/status/heartbeat",
					"event": [
						{
							"listen": "test",
							"script": {
								"type": "text/javascript",
								"exec": [
									"tests[\"Status code is 200\"] = responseCode.code === 200;"
								]
							}
						}
					],
					"request": {
						"url": "localhost:5000/api/status/heartbeat",
						"method": "GET",
						"header": [],
						"body": {},
						"description": "status -get"
					},
					"response": []
				}
			]
		},
		{
			"name": "Token",
			"description": "",
			"item": [
				{
					"name": "localhost:5000/api/token/getactiontoken",
					"request": {
						"url": "localhost:5000/api/token/getactiontoken",
						"method": "GET",
						"header": [],
						"body": {},
						"description": "GET ACTION TOKEN"
					},
					"response": []
				},
				{
					"name": "Current user details TEST",
					"event": [
						{
							"listen": "test",
							"script": {
								"type": "text/javascript",
								"exec": [
									"tests[\"Status code is 200\"] = responseCode.code === 200;"
								]
							}
						},
						{
							"listen": "prerequest",
							"script": {
								"type": "text/javascript",
								"exec": [
									"postman.clearGlobalVariable(\"variable_key\");",
									"",
									"postman.clearEnvironmentVariable(\"variable_key\");"
								]
							}
						}
					],
					"request": {
						"url": "localhost:5000/api/account/GetUser",
						"method": "GET",
						"header": [],
						"body": {},
						"description": "Account - GET - Current user details"
					},
					"response": []
				},
				{
					"name": "localhost:5000/api/account/GetUserClaims",
					"request": {
						"url": "localhost:5000/api/account/GetUserClaims",
						"method": "GET",
						"header": [
							{
								"key": "Authorization",
								"value": "Bearer {{token}}",
								"description": ""
							}
						],
						"body": {},
						"description": ""
					},
					"response": []
				}
			]
		}
	]
}